module go.mau.fi/mautrix-slack

go 1.18

require (
	github.com/gorilla/websocket v1.5.0
	github.com/lib/pq v1.10.6
	github.com/mattn/go-sqlite3 v1.14.15
	github.com/slack-go/slack v0.10.3
	maunium.net/go/maulogger/v2 v2.3.2
	maunium.net/go/mautrix v0.12.0
)

require (
	github.com/gorilla/mux v1.8.0 // indirect
	github.com/mattn/go-colorable v0.1.12 // indirect
	github.com/mattn/go-isatty v0.0.14 // indirect
	github.com/rs/zerolog v1.27.0 // indirect
	github.com/tidwall/gjson v1.14.1 // indirect
	github.com/tidwall/match v1.1.1 // indirect
	github.com/tidwall/pretty v1.2.0 // indirect
	github.com/tidwall/sjson v1.2.4 // indirect
	github.com/yuin/goldmark v1.4.12 // indirect
	golang.org/x/crypto v0.0.0-20220622213112-05595931fe9d // indirect
	golang.org/x/net v0.0.0-20220624214902-1bab6f366d9e // indirect
	golang.org/x/sys v0.0.0-20220520151302-bc2c85ada10a // indirect
	gopkg.in/yaml.v3 v3.0.1 // indirect
	maunium.net/go/mauflag v1.0.0 // indirect
)

replace github.com/slack-go/slack => github.com/rusq/slack v0.11.101-0.20220725083544-8e115f4a7907
